main.c:69:5:main	8	static
main.c:119:6:SystemClock_Config	96	static
main.c:167:13:MX_TIM2_Init	64	static
main.c:226:13:MX_USART2_UART_Init	8	static
main.c:261:13:MX_GPIO_Init	48	static
main.c:280:6:user_pwm_setvalue	48	static
main.c:297:6:Error_Handler	4	static,ignoring_inline_asm
